Project Proposal
…
Alcohol and Marijuana

df_trunc %>% 
    filter(
        !is.na(tu_1_nm_marijuana_suspected) | 
        !is.na(tu_2_nm_marijuana_suspected)
    ) %>%
    select(crash_date, tu_1_nm_marijuana_suspected, tu_2_nm_marijuana_suspected)

# A tibble: 5,925 × 3
   crash_date          tu_1_nm_marijuana_suspected tu_2_nm_marijuana_suspected
   <dttm>              <chr>                       <chr>                      
 1 2021-01-12 00:00:00 <NA>                        Marijuana Not Suspected    
 2 2021-01-15 00:00:00 Unknown                     <NA>                       
 3 2021-01-19 00:00:00 <NA>                        Marijuana Not Suspected    
 4 2021-01-22 00:00:00 Marijuana Not Suspected     Marijuana Not Suspected    
 5 2021-01-22 00:00:00 <NA>                        Marijuana Not Suspected    
 6 2021-01-24 00:00:00 <NA>                        Marijuana Not Suspected    
 7 2021-01-24 00:00:00 Marijuana Not Suspected     <NA>                       
 8 2021-01-30 00:00:00 <NA>                        Marijuana Not Suspected    
 9 2021-02-02 00:00:00 <NA>                        Marijuana Not Suspected    
10 2021-02-02 00:00:00 <NA>                        Marijuana Not Suspected    
# ℹ 5,915 more rows
…
